…
  #summarise statistics of the grouped data
  summarise(avg_net_apr = mean(approve - disapprove), 
            std = sd(approve - disapprove), 
            count = n(), 
            t_crit = qt(.975, count-1)) %>% 
  mutate(se = std / sqrt(count),
  
  #calculate confidence interval
        upper = avg_net_apr + t_crit*se,
        lower = avg_net_apr - t_crit*se) 
  
grouped_df

## # A tibble: 191 x 9
## # Groups:   yearnr [4]
##    yearnr weeknr avg_net_apr   std count t_crit    se   upper   lower
##     <dbl>  <dbl>       <dbl> <dbl> <int>  <dbl> <dbl>   <dbl>   <dbl>
##  1   2017      4       3.26   8.11    13   2.18 2.25   8.17    -1.64 
##  2   2017      5       2.21   3.46    18   2.11 0.815  3.93     0.491
##  3   2017      6      -0.933  5.36    24   2.07 1.09   1.33    -3.20 
##  4   2017      7      -2.64   6.28    25   2.06 1.26  -0.0462  -5.23 
##  5   2017      8      -3.83   6.22    24   2.07 1.27  -1.21    -6.46 
##  6   2017      9      -0.955  4.21    22   2.08 0.897  0.912   -2.82 
##  7   2017     10      -2.06   4.47    26   2.06 0.877 -0.254   -3.87 
##  8   2017     11      -5.53   3.77    25   2.06 0.754 -3.97    -7.08 
##  9   2017     12      -4.38   6.78    25   2.06 1.36  -1.58    -7.18 
## 10   2017     13      -9.71   3.56    25   2.06 0.712 -8.24   -11.2  
## # … with 181 more rows
…
